{
    "basename": "asr-arrays_01_real-6cb0873",
    "cmd": "lfortran --show-asr --no-color {infile} -o {outfile}",
    "infile": "tests/../integration_tests/arrays_01_real.f90",
    "infile_hash": "52d4b470c5523650dead5fa570d62db7293b9ecd23758e3cc4ba28c2",
    "outfile": null,
    "outfile_hash": null,
    "stdout": "asr-arrays_01_real-6cb0873.stdout",
    "stdout_hash": "d33e56f15476b13c997337b8088b07a4f58923a27a5a6c12d29289b7",
    "stderr": null,
    "stderr_hash": null,
    "returncode": 0
}