{
    "basename": "asr-array3-7b1ab3b",
    "cmd": "lfortran --show-asr --no-color {infile} -o {outfile}",
    "infile": "tests/array3.f90",
    "infile_hash": "047ac01d7e3df52429d6889258f37213048937dae8611af6cbd9ecae",
    "outfile": null,
    "outfile_hash": null,
    "stdout": "asr-array3-7b1ab3b.stdout",
    "stdout_hash": "d418fff06e96c49c049ba15a0407e9deb24c9dca93cf103ed5f5c54d",
    "stderr": null,
    "stderr_hash": null,
    "returncode": 0
}