{
    "basename": "asr-types_01-a91206c",
    "cmd": "lfortran --show-asr --no-color {infile} -o {outfile}",
    "infile": "tests/../integration_tests/types_01.f90",
    "infile_hash": "551d14053f907f18f3ffcd47309e735206789f8bd754d11187c8fab3",
    "outfile": null,
    "outfile_hash": null,
    "stdout": "asr-types_01-a91206c.stdout",
    "stdout_hash": "ffdeb43c096931eed7f28147f388546b1d0ca0c6f3246995e4213c3b",
    "stderr": null,
    "stderr_hash": null,
    "returncode": 0
}