{
    "basename": "asr-subroutine4-a425266",
    "cmd": "lfortran --show-asr --no-color {infile} -o {outfile}",
    "infile": "tests/subroutine4.f90",
    "infile_hash": "06ca8a1c322b25fe9280c43f558f6fa92e1a4843b6f6b77e206fdf4e",
    "outfile": null,
    "outfile_hash": null,
    "stdout": "asr-subroutine4-a425266.stdout",
    "stdout_hash": "7a23cf897462bf91f7a829da82b5ed0b52f411dd3f4f3f8a1df7d17d",
    "stderr": null,
    "stderr_hash": null,
    "returncode": 0
}