{
    "basename": "asr-arrays_op_2-f999497",
    "cmd": "lfortran --show-asr --no-color {infile} -o {outfile}",
    "infile": "tests/../integration_tests/arrays_op_2.f90",
    "infile_hash": "e9116415db10e04d12a361016bfaeb9bbff8ec31479b9fcbfd9700f7",
    "outfile": null,
    "outfile_hash": null,
    "stdout": "asr-arrays_op_2-f999497.stdout",
    "stdout_hash": "afe2c0b8858a4701d6ddc0ef62425d9e4ff7602f6534bc6e593946a0",
    "stderr": null,
    "stderr_hash": null,
    "returncode": 0
}