{
    "basename": "asr-types_02-7a95ae7",
    "cmd": "lfortran --show-asr --no-color {infile} -o {outfile}",
    "infile": "tests/../integration_tests/types_02.f90",
    "infile_hash": "6b9728dd8c74663d697504a17537aef00ed9210bf24fae6e7e0468bc",
    "outfile": null,
    "outfile_hash": null,
    "stdout": "asr-types_02-7a95ae7.stdout",
    "stdout_hash": "dd157e8b8991a3372cb3a1ed954a8cb6351cbaee74d0dcb385110193",
    "stderr": null,
    "stderr_hash": null,
    "returncode": 0
}