{
    "basename": "asr-case_02-8557909",
    "cmd": "lfortran --show-asr --no-color {infile} -o {outfile}",
    "infile": "tests/../integration_tests/case_02.f90",
    "infile_hash": "7bbee224aea840614c0a2aef486a632a1120b0926e9f038ef87d47c1",
    "outfile": null,
    "outfile_hash": null,
    "stdout": "asr-case_02-8557909.stdout",
    "stdout_hash": "a3c1c7a2e65d5ae5280328a06d1aa239ca05a10e48fb60e1e56d8f9e",
    "stderr": null,
    "stderr_hash": null,
    "returncode": 0
}