{
    "basename": "asr-types_06-58f9b18",
    "cmd": "lfortran --show-asr --no-color {infile} -o {outfile}",
    "infile": "tests/../integration_tests/types_06.f90",
    "infile_hash": "821a3f29390ed022c7e72bdf2e4f9bace059d335abe1d1b729ac6d22",
    "outfile": null,
    "outfile_hash": null,
    "stdout": "asr-types_06-58f9b18.stdout",
    "stdout_hash": "e016e978a521f11cc936a8611c4483d2695f133241c244b3f45cca9f",
    "stderr": null,
    "stderr_hash": null,
    "returncode": 0
}