{
    "basename": "asr-class_01-704dee8",
    "cmd": "lfortran --show-asr --no-color {infile} -o {outfile}",
    "infile": "tests/../integration_tests/class_01.f90",
    "infile_hash": "b95cfc834f6872860a2626193787fd4607432bf50514ba10a4d99a71",
    "outfile": null,
    "outfile_hash": null,
    "stdout": "asr-class_01-704dee8.stdout",
    "stdout_hash": "d86173218f800cd9f83b9b443620064e5bcbe346fb519ee06d9f50ea",
    "stderr": null,
    "stderr_hash": null,
    "returncode": 0
}