{
    "basename": "asr-recursion_03-8300fac",
    "cmd": "lfortran --show-asr --no-color {infile} -o {outfile}",
    "infile": "tests/../integration_tests/recursion_03.f90",
    "infile_hash": "881acca05bce092c2e11b2449f2c44822e43c11ff3598af3a1fc5a48",
    "outfile": null,
    "outfile_hash": null,
    "stdout": "asr-recursion_03-8300fac.stdout",
    "stdout_hash": "42c0b5bbfb6d586f4cfa543a7c1614c754442c4c0d532fd89523b5c1",
    "stderr": null,
    "stderr_hash": null,
    "returncode": 0
}