{
    "basename": "asr-array2_derived-ad12b21",
    "cmd": "lfortran --show-asr --no-color {infile} -o {outfile}",
    "infile": "tests/array2_derived.f90",
    "infile_hash": "e369ff08e97bdc709b67c7ba894c208aebac6f07f89726c76925733c",
    "outfile": null,
    "outfile_hash": null,
    "stdout": "asr-array2_derived-ad12b21.stdout",
    "stdout_hash": "8686543eeae44c5fd199f2822134b7f71ee6b6047c8e91cfa3723309",
    "stderr": null,
    "stderr_hash": null,
    "returncode": 0
}