{
    "basename": "asr-subroutines_04-a817e0c",
    "cmd": "lfortran --show-asr --no-color {infile} -o {outfile}",
    "infile": "tests/../integration_tests/subroutines_04.f90",
    "infile_hash": "64a0d218db09c2ed45f26712eeca158f8abd11043df4d26101c06498",
    "outfile": null,
    "outfile_hash": null,
    "stdout": "asr-subroutines_04-a817e0c.stdout",
    "stdout_hash": "8b49333862f835ab70b7661adce626913793bdedb381b5cef51ffb3f",
    "stderr": null,
    "stderr_hash": null,
    "returncode": 0
}