{
    "basename": "asr-scopes1-502009a",
    "cmd": "lfortran --show-asr --no-color {infile} -o {outfile}",
    "infile": "tests/scopes1.f90",
    "infile_hash": "48ffe7d9bb1021077b7bec62634ec2682cbfc211123626d338ba0c9e",
    "outfile": null,
    "outfile_hash": null,
    "stdout": "asr-scopes1-502009a.stdout",
    "stdout_hash": "3ec3f0b9b60bdc92b8f3581067b016013018b6f96949e61127bea2af",
    "stderr": null,
    "stderr_hash": null,
    "returncode": 0
}