{
    "basename": "asr-interface_01-9dc98da",
    "cmd": "lfortran --show-asr --no-color {infile} -o {outfile}",
    "infile": "tests/../integration_tests/interface_01.f90",
    "infile_hash": "56828a66265782f7acd20520a5d25ac6246d6d44dfb8fa758507ed63",
    "outfile": null,
    "outfile_hash": null,
    "stdout": "asr-interface_01-9dc98da.stdout",
    "stdout_hash": "bf5dd5dc87eaeb274b17400c6e77df0d8792c466499bb097cbd48cc7",
    "stderr": null,
    "stderr_hash": null,
    "returncode": 0
}