{
    "basename": "asr-nested_05-00beea9",
    "cmd": "lfortran --show-asr --no-color {infile} -o {outfile}",
    "infile": "tests/../integration_tests/nested_05.f90",
    "infile_hash": "d402076738622c436981b46e6f637ef1baaa59760106ec55a7cb7469",
    "outfile": null,
    "outfile_hash": null,
    "stdout": "asr-nested_05-00beea9.stdout",
    "stdout_hash": "9ca781071795514272e209cf0663adf90211971f4a620958954b3ce0",
    "stderr": null,
    "stderr_hash": null,
    "returncode": 0
}