{
    "basename": "asr-nested_04-8423f42",
    "cmd": "lfortran --show-asr --no-color {infile} -o {outfile}",
    "infile": "tests/../integration_tests/nested_04.f90",
    "infile_hash": "2b8a74be94384279e6675120af0087fbbadee6a829dc9f04e36dabfb",
    "outfile": null,
    "outfile_hash": null,
    "stdout": "asr-nested_04-8423f42.stdout",
    "stdout_hash": "32ff3b0f66599548dfdc3fe998bd7335869a9b51b09840596eef4a00",
    "stderr": null,
    "stderr_hash": null,
    "returncode": 0
}