{
    "basename": "asr-subroutine3b-4883d18",
    "cmd": "lfortran --show-asr --no-color {infile} -o {outfile}",
    "infile": "tests/subroutine3b.f90",
    "infile_hash": "0726b3cb8b3ba1a2fc624a4215146065a6ce9a6a0b460ebe40c172a5",
    "outfile": null,
    "outfile_hash": null,
    "stdout": "asr-subroutine3b-4883d18.stdout",
    "stdout_hash": "58e3890e9bcbe3449a7149c85dc05953c3c57ad09835eb4aab8946f6",
    "stderr": null,
    "stderr_hash": null,
    "returncode": 0
}