{
    "basename": "asr-modules_07-7f671c1",
    "cmd": "lfortran --show-asr --no-color {infile} -o {outfile}",
    "infile": "tests/modules_07.f90",
    "infile_hash": "803312680c18e8658ffb84d2288a3ed6ebdef21a99ed09fd3007f9c9",
    "outfile": null,
    "outfile_hash": null,
    "stdout": "asr-modules_07-7f671c1.stdout",
    "stdout_hash": "cd8da03c9483546aa11f12106fbc39a512ea998d16b58173469d9b98",
    "stderr": null,
    "stderr_hash": null,
    "returncode": 0
}