{
    "basename": "asr-program1-17e5471",
    "cmd": "lfortran --show-asr --no-color {infile} -o {outfile}",
    "infile": "tests/program1.f90",
    "infile_hash": "ec4ccdfed01d45648718ca57a9ceb3e5aa82e55e57d8906636902e7b",
    "outfile": null,
    "outfile_hash": null,
    "stdout": "asr-program1-17e5471.stdout",
    "stdout_hash": "3101e3d91198c1e8ec374a6b742059143b448ea3cdc8829ff8a999f8",
    "stderr": null,
    "stderr_hash": null,
    "returncode": 0
}