{
    "basename": "asr-expr5-f0a7df6",
    "cmd": "lfortran --show-asr --no-color {infile} -o {outfile}",
    "infile": "tests/expr5.f90",
    "infile_hash": "030f3f956944c6d24d536fd1f434f877d95bf12aac6f367d2ad1827e",
    "outfile": null,
    "outfile_hash": null,
    "stdout": "asr-expr5-f0a7df6.stdout",
    "stdout_hash": "71ba8fa4dc03ebc36d6781625ab510dfb8f5e03c4550baa84aabd322",
    "stderr": null,
    "stderr_hash": null,
    "returncode": 0
}