{
    "basename": "ast-goto_01-d8652f5",
    "cmd": "lfortran --show-ast --no-color {infile} -o {outfile}",
    "infile": "tests/../integration_tests/goto_01.f90",
    "infile_hash": "a5108e90af7ae9a352b6ef368d3ccf4f3af85127a5ea50c9a937fe49",
    "outfile": null,
    "outfile_hash": null,
    "stdout": "ast-goto_01-d8652f5.stdout",
    "stdout_hash": "29b17b678fe16da322fb9887093b650aec791c4191bc6b860ba01b45",
    "stderr": null,
    "stderr_hash": null,
    "returncode": 0
}