{
    "basename": "ast-subroutine8-af54645",
    "cmd": "lfortran --show-ast --no-color {infile} -o {outfile}",
    "infile": "tests/subroutine8.f90",
    "infile_hash": "0773280a17582e4ee611300a1962aead9df772923af735456acb45a1",
    "outfile": null,
    "outfile_hash": null,
    "stdout": "ast-subroutine8-af54645.stdout",
    "stdout_hash": "3a4bb90877651b789cd2674f320749e4d09f6d204f9bce12a1d46444",
    "stderr": null,
    "stderr_hash": null,
    "returncode": 0
}