{
    "basename": "ast-subroutine1-fdc40b3",
    "cmd": "lfortran --show-ast --no-color {infile} -o {outfile}",
    "infile": "tests/subroutine1.f90",
    "infile_hash": "e209c22328b423e75d6801f3c0ef19bc120936196435dff2cb19df31",
    "outfile": null,
    "outfile_hash": null,
    "stdout": "ast-subroutine1-fdc40b3.stdout",
    "stdout_hash": "b04e5add2e80f537d5d6b2b8806dcfc24bd75fcd187ac3e50d74656b",
    "stderr": null,
    "stderr_hash": null,
    "returncode": 0
}