{
    "basename": "ast-critical1-98f603a",
    "cmd": "lfortran --show-ast --no-color {infile} -o {outfile}",
    "infile": "tests/critical1.f90",
    "infile_hash": "05948a8c6d4476986b19c2be2d0c40a9ebb19a2007eac02159ab9496",
    "outfile": null,
    "outfile_hash": null,
    "stdout": "ast-critical1-98f603a.stdout",
    "stdout_hash": "0141d2bd7017fb4f4f535caf78eca6aae5a241ff59f0508e5244a6b5",
    "stderr": null,
    "stderr_hash": null,
    "returncode": 0
}