{
    "basename": "ast-do3-54790e3",
    "cmd": "lfortran --show-ast --no-color {infile} -o {outfile}",
    "infile": "tests/do3.f90",
    "infile_hash": "0a014579f010a2f9d2a6ccea57516e84187eeb25544cb685fb8540dc",
    "outfile": null,
    "outfile_hash": null,
    "stdout": "ast-do3-54790e3.stdout",
    "stdout_hash": "7b278f3031a62187ffc8215fe24235585eb629c823be252445739b55",
    "stderr": null,
    "stderr_hash": null,
    "returncode": 0
}