{
    "basename": "ast-subroutine2-c8b0b6f",
    "cmd": "lfortran --show-ast --no-color {infile} -o {outfile}",
    "infile": "tests/subroutine2.f90",
    "infile_hash": "f7dd567e93e3e5af2c6a514a8f14fb96cad675b0aba7f6659efa28ab",
    "outfile": null,
    "outfile_hash": null,
    "stdout": "ast-subroutine2-c8b0b6f.stdout",
    "stdout_hash": "24498c260b81f485c32d5d15712362828c4bb4ba543aa3951df27a6a",
    "stderr": null,
    "stderr_hash": null,
    "returncode": 0
}