{
    "basename": "ast-do_concurrent1-5fba0ee",
    "cmd": "lfortran --show-ast --no-color {infile} -o {outfile}",
    "infile": "tests/do_concurrent1.f90",
    "infile_hash": "455e5c83afb64c2316e774aadd27b3dbc48f7ee10948365b50d4e90f",
    "outfile": null,
    "outfile_hash": null,
    "stdout": "ast-do_concurrent1-5fba0ee.stdout",
    "stdout_hash": "c6ca1ccd072b25786bb841642b674413f11c692058754711ae6301d9",
    "stderr": null,
    "stderr_hash": null,
    "returncode": 0
}