{
    "basename": "ast-submodule_01-2524ba9",
    "cmd": "lfortran --show-ast --no-color {infile} -o {outfile}",
    "infile": "tests/../integration_tests/submodule_01.f90",
    "infile_hash": "ed0ecc9003bb9cd8e6be1f4f77cd3e59f45d09f2ba2f64029dc3680e",
    "outfile": null,
    "outfile_hash": null,
    "stdout": "ast-submodule_01-2524ba9.stdout",
    "stdout_hash": "dbc9656e9d95ee056aa84d48c86be84ba020608b409816cd8ca43181",
    "stderr": null,
    "stderr_hash": null,
    "returncode": 0
}