{
    "basename": "ast-derived_types_03-3580222",
    "cmd": "lfortran --show-ast --no-color {infile} -o {outfile}",
    "infile": "tests/derived_types_03.f90",
    "infile_hash": "0367caa646d88d9d311f2157b87aa8d37c7c09500fea94cc3adacbe3",
    "outfile": null,
    "outfile_hash": null,
    "stdout": "ast-derived_types_03-3580222.stdout",
    "stdout_hash": "7023a3022ae0dd2d51c2dec9c1bd6eca7fd6c61251307d9809cb0e5f",
    "stderr": null,
    "stderr_hash": null,
    "returncode": 0
}