{
    "basename": "ast-modules_01-da63075",
    "cmd": "lfortran --show-ast --no-color {infile} -o {outfile}",
    "infile": "tests/../integration_tests/modules_01.f90",
    "infile_hash": "17c761eb72726e0dde59f2b21f98f2402d783613834e927c49047534",
    "outfile": null,
    "outfile_hash": null,
    "stdout": "ast-modules_01-da63075.stdout",
    "stdout_hash": "c4db2af259ca30bfada76528d7299ddeae8d09a3ab29496e7fb8ef35",
    "stderr": null,
    "stderr_hash": null,
    "returncode": 0
}