{
    "basename": "ast-interface2-98c9adf",
    "cmd": "lfortran --show-ast --no-color {infile} -o {outfile}",
    "infile": "tests/interface2.f90",
    "infile_hash": "708e539c3b559554e522379a3dd84fbbef89eb01ea66bf9ded4a5fcb",
    "outfile": null,
    "outfile_hash": null,
    "stdout": "ast-interface2-98c9adf.stdout",
    "stdout_hash": "4742916fe94d423ea4415710ce8785185860d01aa4e3f3b225dd37dc",
    "stderr": null,
    "stderr_hash": null,
    "returncode": 0
}