{
    "basename": "ast-case_03-b14adab",
    "cmd": "lfortran --show-ast --no-color {infile} -o {outfile}",
    "infile": "tests/../integration_tests/case_03.f90",
    "infile_hash": "4fc1bb48b2136f22bb44b7c69aaa05a43b4ed2e4b8464c433340295d",
    "outfile": null,
    "outfile_hash": null,
    "stdout": "ast-case_03-b14adab.stdout",
    "stdout_hash": "7a6fea6eec1aef8d31ef5395403ec13f4aec1320c9a47f6271fcb125",
    "stderr": null,
    "stderr_hash": null,
    "returncode": 0
}