{
    "basename": "ast-block_02-82f9e5f",
    "cmd": "lfortran --show-ast --no-color {infile} -o {outfile}",
    "infile": "tests/../integration_tests/block_02.f90",
    "infile_hash": "454b633240fa00d44de1b5374429d3d7edc1c37ccd92b8b93394d639",
    "outfile": null,
    "outfile_hash": null,
    "stdout": "ast-block_02-82f9e5f.stdout",
    "stdout_hash": "7d6a134807be02aa38e73d91896a39049f948fd2eaa5083231381877",
    "stderr": null,
    "stderr_hash": null,
    "returncode": 0
}