{
    "basename": "ast-builtin1-1b5ca89",
    "cmd": "lfortran --show-ast --no-color {infile} -o {outfile}",
    "infile": "tests/builtin1.f90",
    "infile_hash": "1abc89e3393d36647c9f9e3c99558ba4b1ee34b7751424db819e4feb",
    "outfile": null,
    "outfile_hash": null,
    "stdout": "ast-builtin1-1b5ca89.stdout",
    "stdout_hash": "3db93c18fc0935703752666ceb84cbbe27413c29ef413cbe5ca1d9de",
    "stderr": null,
    "stderr_hash": null,
    "returncode": 0
}