{
    "basename": "ast-array4-3d07222",
    "cmd": "lfortran --show-ast --no-color {infile} -o {outfile}",
    "infile": "tests/array4.f90",
    "infile_hash": "b2300c4e8589cce700b9cd43cbfb88576774e3262afa4c469c09b7d0",
    "outfile": null,
    "outfile_hash": null,
    "stdout": "ast-array4-3d07222.stdout",
    "stdout_hash": "fa01af5883f7e9c77a32a12b81581b7f757d428df79351bb4597818c",
    "stderr": null,
    "stderr_hash": null,
    "returncode": 0
}