{
    "basename": "ast-write1-170ef53",
    "cmd": "lfortran --show-ast --no-color {infile} -o {outfile}",
    "infile": "tests/write1.f90",
    "infile_hash": "75eba9b93bd747fb18efbf173e1d35340019e1c62f38efc3a4cbcf22",
    "outfile": null,
    "outfile_hash": null,
    "stdout": "ast-write1-170ef53.stdout",
    "stdout_hash": "bf5aac087f579a1c51815f008dea265c96d3dfae242d672baae4df45",
    "stderr": null,
    "stderr_hash": null,
    "returncode": 0
}