{
    "basename": "ast-do_concurrent_reduce-58dd849",
    "cmd": "lfortran --show-ast --no-color {infile} -o {outfile}",
    "infile": "tests/do_concurrent_reduce.f90",
    "infile_hash": "44ebdebb05b853f4680c203c3b2b0e98e9285d1f3923ecbc255bc105",
    "outfile": null,
    "outfile_hash": null,
    "stdout": "ast-do_concurrent_reduce-58dd849.stdout",
    "stdout_hash": "e6d07f0f5c9fb2ae80ce76424383f14f531492be5eb542661c13d50e",
    "stderr": null,
    "stderr_hash": null,
    "returncode": 0
}