{
    "basename": "ast-interface4-ad40742",
    "cmd": "lfortran --show-ast --no-color {infile} -o {outfile}",
    "infile": "tests/interface4.f90",
    "infile_hash": "8b4db4e1c65a085c13634bc5b46243c7f058ed4cb41ddd3d3e5a664d",
    "outfile": null,
    "outfile_hash": null,
    "stdout": "ast-interface4-ad40742.stdout",
    "stdout_hash": "97429d86804f295ba5f69b4ce5b185ba10fba2606526ffb74aaf086e",
    "stderr": null,
    "stderr_hash": null,
    "returncode": 0
}