{
    "basename": "ast-close1-d682580",
    "cmd": "lfortran --show-ast --no-color {infile} -o {outfile}",
    "infile": "tests/close1.f90",
    "infile_hash": "b6174b7e66a7b9dea6c59e0e40b1786dc0721bf2b248b292f3576c9c",
    "outfile": null,
    "outfile_hash": null,
    "stdout": "ast-close1-d682580.stdout",
    "stdout_hash": "d381cb3e095449e0b4bb8124a93b2b6914cb01bacb76806b88157d46",
    "stderr": null,
    "stderr_hash": null,
    "returncode": 0
}