{
    "basename": "ast-program_02-2faf7cf",
    "cmd": "lfortran --show-ast --no-color {infile} -o {outfile}",
    "infile": "tests/../integration_tests/program_02.f90",
    "infile_hash": "cfd9e7516e44684e41465abbcb4438aa337500b426c3e8b772e69fbe",
    "outfile": null,
    "outfile_hash": null,
    "stdout": "ast-program_02-2faf7cf.stdout",
    "stdout_hash": "8fab680c1bcaa928541054d32c5869d7ed077f7b834cae5aca4c1912",
    "stderr": null,
    "stderr_hash": null,
    "returncode": 0
}