{
    "basename": "ast-subroutine9-8ecec78",
    "cmd": "lfortran --show-ast --no-color {infile} -o {outfile}",
    "infile": "tests/subroutine9.f90",
    "infile_hash": "7936a6a897f4c893828bca05987a6c387bcda279b2ac5f20199ffda3",
    "outfile": null,
    "outfile_hash": null,
    "stdout": "ast-subroutine9-8ecec78.stdout",
    "stdout_hash": "9f611499818be2781d24438bae3bbcb8100c5aa695e8da6efccde311",
    "stderr": null,
    "stderr_hash": null,
    "returncode": 0
}