{
    "basename": "ast-do1-0a89222",
    "cmd": "lfortran --show-ast --no-color {infile} -o {outfile}",
    "infile": "tests/do1.f90",
    "infile_hash": "8a141fb043e826435233a5b5dd627eb5572956821fc11837b4f2707c",
    "outfile": null,
    "outfile_hash": null,
    "stdout": "ast-do1-0a89222.stdout",
    "stdout_hash": "62fa4d1c7a046c7deb82c1e2cc62e5bc1216a7eb5c16b0c8715f962b",
    "stderr": null,
    "stderr_hash": null,
    "returncode": 0
}