{
    "basename": "ast-global_scope2-181c327",
    "cmd": "lfortran --show-ast --no-color {infile} -o {outfile}",
    "infile": "tests/global_scope2.f90",
    "infile_hash": "e511f118b9a040b5e7a3ff2ad75cd7942dee08d3a21bd4ca5cd668b3",
    "outfile": null,
    "outfile_hash": null,
    "stdout": "ast-global_scope2-181c327.stdout",
    "stdout_hash": "f054d24e71d8471dda07205ee6577476f60fa6af2bf2396cfbbb8b13",
    "stderr": null,
    "stderr_hash": null,
    "returncode": 0
}