{
    "basename": "ast_f90-subroutine4-5a5d3ff",
    "cmd": "lfortran --show-ast-f90 --no-color {infile}",
    "infile": "tests/subroutine4.f90",
    "infile_hash": "06ca8a1c322b25fe9280c43f558f6fa92e1a4843b6f6b77e206fdf4e",
    "outfile": null,
    "outfile_hash": null,
    "stdout": "ast_f90-subroutine4-5a5d3ff.stdout",
    "stdout_hash": "9b3005f9f18b24427fc7f78c414f1fb6f12b8579b6cdebf650bbf7e3",
    "stderr": null,
    "stderr_hash": null,
    "returncode": 0
}