{
    "basename": "ast_f90-stop1-fd23a69",
    "cmd": "lfortran --show-ast-f90 --no-color {infile}",
    "infile": "tests/stop1.f90",
    "infile_hash": "356601f3f1d56abfa1b7d00130c2067cbf3d450b3c563a900ff9ccd5",
    "outfile": null,
    "outfile_hash": null,
    "stdout": "ast_f90-stop1-fd23a69.stdout",
    "stdout_hash": "9bcd10738f552e5a9c3f0458fe0cbfb0ef07805811c205e795cc0163",
    "stderr": null,
    "stderr_hash": null,
    "returncode": 0
}