{
    "basename": "ast_f90-string3-644d133",
    "cmd": "lfortran --show-ast-f90 --no-color {infile}",
    "infile": "tests/../integration_tests/string3.f90",
    "infile_hash": "90188a84217deb8d16424b3aaf49f0b2a999cad8494cdf536c6d27e1",
    "outfile": null,
    "outfile_hash": null,
    "stdout": "ast_f90-string3-644d133.stdout",
    "stdout_hash": "f1d84c043d0015f4c9ad3ff871b4b64d2dffbb2377c26ff93d9fa0f9",
    "stderr": null,
    "stderr_hash": null,
    "returncode": 0
}