{
    "basename": "ast_f90-arrays_02-5a6d798",
    "cmd": "lfortran --show-ast-f90 --no-color {infile}",
    "infile": "tests/../integration_tests/arrays_02.f90",
    "infile_hash": "b5b3a6833fd727f5cce92c3c4886c4e20117f33710a1ec8b1016d8f6",
    "outfile": null,
    "outfile_hash": null,
    "stdout": "ast_f90-arrays_02-5a6d798.stdout",
    "stdout_hash": "3eed5987f733a1ceb3e30b7c6a592615433e59870c5c60dc0c6ecc0d",
    "stderr": null,
    "stderr_hash": null,
    "returncode": 0
}