{
    "basename": "ast_f90-case_01-0170129",
    "cmd": "lfortran --show-ast-f90 --no-color {infile}",
    "infile": "tests/../integration_tests/case_01.f90",
    "infile_hash": "50b2ffd2a03a6c41a881d9c5cd2e1a0941707b9200f12c16f1bd48ea",
    "outfile": null,
    "outfile_hash": null,
    "stdout": "ast_f90-case_01-0170129.stdout",
    "stdout_hash": "d3544dd0bcff2e82e145d419dcd07a7e5e869d5e96d8d0eaef57da5b",
    "stderr": null,
    "stderr_hash": null,
    "returncode": 0
}