{
    "basename": "ast_f90-defop1-554ef2a",
    "cmd": "lfortran --show-ast-f90 --no-color {infile}",
    "infile": "tests/defop1.f90",
    "infile_hash": "78b29077fdb7303bc8002ba7f16a36ffa13a981527f87df53bf268e3",
    "outfile": null,
    "outfile_hash": null,
    "stdout": "ast_f90-defop1-554ef2a.stdout",
    "stdout_hash": "185e224c9009efbe7b81e4503baf63be290024729cd323abf878086d",
    "stderr": null,
    "stderr_hash": null,
    "returncode": 0
}