{
    "basename": "ast_f90-allocate1-78e1fbe",
    "cmd": "lfortran --show-ast-f90 --no-color {infile}",
    "infile": "tests/allocate1.f90",
    "infile_hash": "7a28f6115b781d328be0829189ace20f4f862bf745740c6c78400225",
    "outfile": null,
    "outfile_hash": null,
    "stdout": "ast_f90-allocate1-78e1fbe.stdout",
    "stdout_hash": "63ff356c9777fa1cdbaf550848b8b0a76987788b8485a13031ad5d0d",
    "stderr": null,
    "stderr_hash": null,
    "returncode": 0
}