{
    "basename": "ast_f90-complex_01-fe2c2ce",
    "cmd": "lfortran --show-ast-f90 --no-color {infile}",
    "infile": "tests/../integration_tests/complex_01.f90",
    "infile_hash": "e94aebc987a1655b49e1e31229a6c24ccdbed83af0ebf6a0fb4684f2",
    "outfile": null,
    "outfile_hash": null,
    "stdout": "ast_f90-complex_01-fe2c2ce.stdout",
    "stdout_hash": "57ae9e9dbb54610e2c9b9133607deb2018f382c2648778aa415631a9",
    "stderr": null,
    "stderr_hash": null,
    "returncode": 0
}