{
    "basename": "cpp-subroutine4-ed6bf76",
    "cmd": "lfortran --show-cpp {infile}",
    "infile": "tests/subroutine4.f90",
    "infile_hash": "06ca8a1c322b25fe9280c43f558f6fa92e1a4843b6f6b77e206fdf4e",
    "outfile": null,
    "outfile_hash": null,
    "stdout": "cpp-subroutine4-ed6bf76.stdout",
    "stdout_hash": "5cb7e43bf1966941f2a416c4ea1b859e136e183b046e6b369af79250",
    "stderr": null,
    "stderr_hash": null,
    "returncode": 0
}