#include <iostream>
#include <vector>
#include <Kokkos_Core.hpp>

template <typename T>
Kokkos::View<T*> from_std_vector(const std::vector<T> &v)
{
    Kokkos::View<T*> r("r", v.size());
    for (size_t i=0; i < v.size(); i++) {
        r(i) = v[i];
    }
    return r;
}

namespace {

void main2() {
        Kokkos::View<int[3]> a("a");
        Kokkos::View<int[4]> b("b");
        int i;
        for (i=1; i<=3; i++) {
            a[i-1] = i + 10;
        };
        if (a[1-1] != 11) {
            std::cerr << "ERROR STOP" << std::endl;
            exit(1);
        };
        if (a[2-1] != 12) {
            std::cerr << "ERROR STOP" << std::endl;
            exit(1);
        };
        if (a[3-1] != 13) {
            std::cerr << "ERROR STOP" << std::endl;
            exit(1);
        };
        for (i=11; i<=14; i++) {
            b[i - 10-1] = i;
        };
        if (b[1-1] != 11) {
            std::cerr << "ERROR STOP" << std::endl;
            exit(1);
        };
        if (b[2-1] != 12) {
            std::cerr << "ERROR STOP" << std::endl;
            exit(1);
        };
        if (b[3-1] != 13) {
            std::cerr << "ERROR STOP" << std::endl;
            exit(1);
        };
        if (b[4-1] != 14) {
            std::cerr << "ERROR STOP" << std::endl;
            exit(1);
        };
        for (i=1; i<=3; i++) {
            b[i-1] = a[i-1] - 10;
        };
        if (b[1-1] != 1) {
            std::cerr << "ERROR STOP" << std::endl;
            exit(1);
        };
        if (b[2-1] != 2) {
            std::cerr << "ERROR STOP" << std::endl;
            exit(1);
        };
        if (b[3-1] != 3) {
            std::cerr << "ERROR STOP" << std::endl;
            exit(1);
        };
        b[4-1] = b[1-1] + b[2-1] + b[3-1] + a[1-1];
        if (b[4-1] != 17) {
            std::cerr << "ERROR STOP" << std::endl;
            exit(1);
        };
        b[4-1] = a[1-1];
        if (b[4-1] != 11) {
            std::cerr << "ERROR STOP" << std::endl;
            exit(1);
        };
}

}
int main(int argc, char* argv[])
{
    Kokkos::initialize(argc, argv);
    main2();
    Kokkos::finalize();
    return 0;
}
