{
    "basename": "cpp-do_concurrent_reduce-7a1450d",
    "cmd": "lfortran --show-cpp {infile}",
    "infile": "tests/do_concurrent_reduce.f90",
    "infile_hash": "44ebdebb05b853f4680c203c3b2b0e98e9285d1f3923ecbc255bc105",
    "outfile": null,
    "outfile_hash": null,
    "stdout": "cpp-do_concurrent_reduce-7a1450d.stdout",
    "stdout_hash": "f99442bcbada5a4fbd14234f5fb2ce55585f3c71b90bd95fc4721f27",
    "stderr": null,
    "stderr_hash": null,
    "returncode": 0
}