{
    "basename": "cpp-array1-5e35a4b",
    "cmd": "lfortran --show-cpp {infile}",
    "infile": "tests/array1.f90",
    "infile_hash": "74ef23b0c6d49a710e5035ce53fa6899eb51ef5e5b693d15108744ca",
    "outfile": null,
    "outfile_hash": null,
    "stdout": "cpp-array1-5e35a4b.stdout",
    "stdout_hash": "99cd73e4444af889315b7dbeb4e77282276c87cd3b53d5a6492810e6",
    "stderr": null,
    "stderr_hash": null,
    "returncode": 0
}