#include <iostream>
#include <vector>
#include <Kokkos_Core.hpp>

template <typename T>
Kokkos::View<T*> from_std_vector(const std::vector<T> &v)
{
    Kokkos::View<T*> r("r", v.size());
    for (size_t i=0; i < v.size(); i++) {
        r(i) = v[i];
    }
    return r;
}

int abs(const Kokkos::View<const int*> &x)
{
    int abs;
    return abs;
}

bool allocated(const Kokkos::View<const int*> &x)
{
    bool allocated;
    return allocated;
}

int lbound(const Kokkos::View<const int*> &x, int dim)
{
    int lbound;
    return lbound;
}

int max(int a, int b)
{
    int max;
    return max;
}

int maxval(const Kokkos::View<const int*> &x)
{
    int maxval;
    return maxval;
}

int min(int a, int b)
{
    int min;
    return min;
}

int minval(const Kokkos::View<const int*> &x)
{
    int minval;
    return minval;
}

int real(const Kokkos::View<const int*> &x, int kind)
{
    int real;
    return real;
}

int sum(const Kokkos::View<const int*> &x)
{
    int sum;
    return sum;
}

int ubound(const Kokkos::View<const int*> &x, int dim)
{
    int ubound;
    return ubound;
}

namespace {
void triad(const Kokkos::View<const float*> &a, const Kokkos::View<const float*> &b, float scalar, const Kokkos::View<float*> &c)
{
    int N;
    N = a.extent(0);
    Kokkos::parallel_for(Kokkos::RangePolicy<Kokkos::DefaultExecutionSpace>(1, N+1), KOKKOS_LAMBDA(const long i) {
        c[i-1] = a[i-1] + scalar*b[i-1];
    });
}


void main2() {
}

}
int main(int argc, char* argv[])
{
    Kokkos::initialize(argc, argv);
    main2();
    Kokkos::finalize();
    return 0;
}
