; ModuleID = 'LFortran'
source_filename = "LFortran"

@x = global i32 0

define i32 @f() {
.entry:
  %f1 = alloca i32, align 4
  store i32 6, i32* @x, align 4
  %0 = load i32, i32* @x, align 4
  %1 = add i32 %0, 1
  store i32 %1, i32* @x, align 4
  %2 = load i32, i32* @x, align 4
  %3 = mul i32 3, %2
  store i32 %3, i32* %f1, align 4
  %4 = load i32, i32* %f1, align 4
  ret i32 %4
}

