{
    "basename": "llvm-callback_04-a311393",
    "cmd": "lfortran --show-llvm {infile} -o {outfile}",
    "infile": "tests/../integration_tests/callback_04.f90",
    "infile_hash": "cd24a6ca8ba324bbafcdf3751e8bbb545e3e5c9ce22ebba1bc12ba8c",
    "outfile": null,
    "outfile_hash": null,
    "stdout": "llvm-callback_04-a311393.stdout",
    "stdout_hash": "3ed582d04549b256749786f7e24300fd3f7287aabab42eafc9f04297",
    "stderr": null,
    "stderr_hash": null,
    "returncode": 0
}