{
    "basename": "llvm-modules_01-8087933",
    "cmd": "lfortran --show-llvm {infile} -o {outfile}",
    "infile": "tests/../integration_tests/modules_01.f90",
    "infile_hash": "17c761eb72726e0dde59f2b21f98f2402d783613834e927c49047534",
    "outfile": null,
    "outfile_hash": null,
    "stdout": "llvm-modules_01-8087933.stdout",
    "stdout_hash": "a641ccc60e7bec8ebd4c5b783d9ac6d72377366021f00b446510d2d3",
    "stderr": null,
    "stderr_hash": null,
    "returncode": 0
}