{
    "basename": "llvm-arrays_op_1-9abaebf",
    "cmd": "lfortran --show-llvm {infile} -o {outfile}",
    "infile": "tests/../integration_tests/arrays_op_1.f90",
    "infile_hash": "be5b09f7d22cbcd7a3e696dd73d60576efa0c24ad30f580af6465613",
    "outfile": null,
    "outfile_hash": null,
    "stdout": "llvm-arrays_op_1-9abaebf.stdout",
    "stdout_hash": "c64aaf1765a375da7d04cec423fb363a82213592efa7e416e0e2fd05",
    "stderr": null,
    "stderr_hash": null,
    "returncode": 0
}