{
    "basename": "llvm-complex2-977bfad",
    "cmd": "lfortran --show-llvm {infile} -o {outfile}",
    "infile": "tests/complex2.f90",
    "infile_hash": "420a31c745b1be940871a88d76cfdc7432de5cbf6fe9f2e8bc87bf39",
    "outfile": null,
    "outfile_hash": null,
    "stdout": "llvm-complex2-977bfad.stdout",
    "stdout_hash": "2d3813f4814b3ca2b9e1b2afc239f576e59c3c02fb840fefda4eb473",
    "stderr": null,
    "stderr_hash": null,
    "returncode": 0
}