{
    "basename": "llvm-arrays_op_5-3bd2fd4",
    "cmd": "lfortran --show-llvm {infile} -o {outfile}",
    "infile": "tests/../integration_tests/arrays_op_5.f90",
    "infile_hash": "f3c014105f55ed7ec4a86da773076b204ada3cd5c8903ecbf25af3c4",
    "outfile": null,
    "outfile_hash": null,
    "stdout": "llvm-arrays_op_5-3bd2fd4.stdout",
    "stdout_hash": "c394442ce4e3b13b5111e1fe85432a62a9eba4d916007be276f9e46c",
    "stderr": null,
    "stderr_hash": null,
    "returncode": 0
}