{
    "basename": "llvm-arrays_03_func-c8022de",
    "cmd": "lfortran --show-llvm {infile} -o {outfile}",
    "infile": "tests/../integration_tests/arrays_03_func.f90",
    "infile_hash": "9feab893fd240821f352bd8b0c12cb132cf39c706950d08f5a41cc54",
    "outfile": null,
    "outfile_hash": null,
    "stdout": "llvm-arrays_03_func-c8022de.stdout",
    "stdout_hash": "1dfaf2697b1cf78d958acf5f7355f0b060b06e2fd288c6e595ec9389",
    "stderr": null,
    "stderr_hash": null,
    "returncode": 0
}