{
    "basename": "llvm-arrays_01_logical-22d8a97",
    "cmd": "lfortran --show-llvm {infile} -o {outfile}",
    "infile": "tests/../integration_tests/arrays_01_logical.f90",
    "infile_hash": "494cd2aba8ceee4c9a0bddba4b51d7a4b0b3f817d92e8c0894e4b08b",
    "outfile": null,
    "outfile_hash": null,
    "stdout": "llvm-arrays_01_logical-22d8a97.stdout",
    "stdout_hash": "27e04f3adbbbec2b8dfc7c2ff4a1ec842c81688bcbf35b7c54366ea2",
    "stderr": null,
    "stderr_hash": null,
    "returncode": 0
}