; ModuleID = 'LFortran'
source_filename = "LFortran"

%complex_4 = type { float, float }

@0 = private unnamed_addr constant [2 x i8] c"l\00", align 1
@1 = private unnamed_addr constant [4 x i8] c"eft\00", align 1
@2 = private unnamed_addr constant [2 x i8] c"l\00", align 1
@3 = private unnamed_addr constant [4 x i8] c"eft\00", align 1
@4 = private unnamed_addr constant [33 x i8] c"%d %d %f (%f,%f) %d %d %d %f %s\0A\00", align 1

define i32 @main() {
.entry:
  %a = alloca i32, align 4
  store i32 3, i32* %a, align 4
  %b = alloca i1, align 1
  store i1 true, i1* %b, align 1
  %c = alloca %complex_4, align 8
  %0 = alloca %complex_4, align 8
  %1 = getelementptr %complex_4, %complex_4* %0, i32 0, i32 0
  %2 = getelementptr %complex_4, %complex_4* %0, i32 0, i32 1
  store float 3.000000e+00, float* %1, align 4
  store float 4.000000e+00, float* %2, align 4
  %3 = load %complex_4, %complex_4* %0, align 4
  store %complex_4 %3, %complex_4* %c, align 4
  %i = alloca i32, align 4
  store i32 1, i32* %i, align 4
  %j = alloca i32, align 4
  store i32 2, i32* %j, align 4
  %l = alloca i1, align 1
  store i1 true, i1* %l, align 1
  %r = alloca float, align 4
  store float 4.000000e+00, float* %r, align 4
  %r_minus = alloca float, align 4
  store float -4.000000e+00, float* %r_minus, align 4
  %s = alloca i8*, align 8
  %4 = alloca i8*, align 8
  store i8* getelementptr inbounds ([2 x i8], [2 x i8]* @0, i32 0, i32 0), i8** %4, align 8
  %5 = alloca i8*, align 8
  store i8* getelementptr inbounds ([4 x i8], [4 x i8]* @1, i32 0, i32 0), i8** %5, align 8
  %6 = alloca i8*, align 8
  call void @_lfortran_strcat(i8** %4, i8** %5, i8** %6)
  %7 = load i8*, i8** %6, align 8
  store i8* %7, i8** %s, align 8
  %s1 = alloca i8*, align 8
  store i8* getelementptr inbounds ([2 x i8], [2 x i8]* @2, i32 0, i32 0), i8** %s1, align 8
  %s2 = alloca i8*, align 8
  store i8* getelementptr inbounds ([4 x i8], [4 x i8]* @3, i32 0, i32 0), i8** %s2, align 8
  %8 = load i32, i32* %i, align 4
  %9 = load i32, i32* %j, align 4
  %10 = load float, float* %r, align 4
  %11 = fpext float %10 to double
  %12 = load %complex_4, %complex_4* %c, align 4
  %13 = alloca %complex_4, align 8
  store %complex_4 %12, %complex_4* %13, align 4
  %14 = getelementptr %complex_4, %complex_4* %13, i32 0, i32 0
  %15 = load float, float* %14, align 4
  %16 = fpext float %15 to double
  %17 = alloca %complex_4, align 8
  store %complex_4 %12, %complex_4* %17, align 4
  %18 = getelementptr %complex_4, %complex_4* %17, i32 0, i32 1
  %19 = load float, float* %18, align 4
  %20 = fpext float %19 to double
  %21 = load i32, i32* %a, align 4
  %22 = load i1, i1* %l, align 1
  %23 = load i1, i1* %b, align 1
  %24 = load float, float* %r_minus, align 4
  %25 = fpext float %24 to double
  %26 = load i8*, i8** %s, align 8
  call void (i8*, ...) @_lfortran_printf(i8* getelementptr inbounds ([33 x i8], [33 x i8]* @4, i32 0, i32 0), i32 %8, i32 %9, double %11, double %16, double %20, i32 %21, i1 %22, i1 %23, double %25, i8* %26)
  ret i32 0
}

declare void @_lfortran_strcat(i8**, i8**, i8**)

declare void @_lfortran_printf(i8*, ...)

