; ModuleID = 'LFortran'
source_filename = "LFortran"

@0 = private unnamed_addr constant [12 x i8] c"ERROR STOP\0A\00", align 1
@1 = private unnamed_addr constant [12 x i8] c"ERROR STOP\0A\00", align 1
@2 = private unnamed_addr constant [12 x i8] c"ERROR STOP\0A\00", align 1
@3 = private unnamed_addr constant [12 x i8] c"ERROR STOP\0A\00", align 1
@4 = private unnamed_addr constant [12 x i8] c"ERROR STOP\0A\00", align 1
@5 = private unnamed_addr constant [12 x i8] c"ERROR STOP\0A\00", align 1

define i32 @main() {
.entry:
  %i = alloca i32, align 4
  %j = alloca i32, align 4
  store i32 1, i32* %i, align 4
  store i32 0, i32* %j, align 4
  br label %loop.head

loop.head:                                        ; preds = %loop.body, %.entry
  %0 = load i32, i32* %i, align 4
  %1 = icmp slt i32 %0, 11
  br i1 %1, label %loop.body, label %loop.end

loop.body:                                        ; preds = %loop.head
  %2 = load i32, i32* %j, align 4
  %3 = load i32, i32* %i, align 4
  %4 = add i32 %2, %3
  store i32 %4, i32* %j, align 4
  %5 = load i32, i32* %i, align 4
  %6 = add i32 %5, 1
  store i32 %6, i32* %i, align 4
  br label %loop.head

loop.end:                                         ; preds = %loop.head
  %7 = load i32, i32* %j, align 4
  %8 = icmp ne i32 %7, 55
  br i1 %8, label %then, label %else

then:                                             ; preds = %loop.end
  call void (i8*, ...) @_lfortran_printf(i8* getelementptr inbounds ([12 x i8], [12 x i8]* @0, i32 0, i32 0))
  call void @exit(i32 1)
  br label %ifcont

else:                                             ; preds = %loop.end
  br label %ifcont

ifcont:                                           ; preds = %else, %then
  %iftmp = phi i32 [ 1, %then ], [ 2, %else ]
  %9 = load i32, i32* %i, align 4
  %10 = icmp ne i32 %9, 11
  br i1 %10, label %then1, label %else2

then1:                                            ; preds = %ifcont
  call void (i8*, ...) @_lfortran_printf(i8* getelementptr inbounds ([12 x i8], [12 x i8]* @1, i32 0, i32 0))
  call void @exit(i32 1)
  br label %ifcont3

else2:                                            ; preds = %ifcont
  br label %ifcont3

ifcont3:                                          ; preds = %else2, %then1
  %iftmp4 = phi i32 [ 1, %then1 ], [ 2, %else2 ]
  store i32 1, i32* %i, align 4
  store i32 0, i32* %j, align 4
  br label %loop.head5

loop.head5:                                       ; preds = %loop.body6, %ifcont3
  %11 = load i32, i32* %i, align 4
  %12 = icmp sle i32 %11, 10
  br i1 %12, label %loop.body6, label %loop.end7

loop.body6:                                       ; preds = %loop.head5
  %13 = load i32, i32* %j, align 4
  %14 = load i32, i32* %i, align 4
  %15 = add i32 %13, %14
  store i32 %15, i32* %j, align 4
  %16 = load i32, i32* %i, align 4
  %17 = add i32 %16, 1
  store i32 %17, i32* %i, align 4
  br label %loop.head5

loop.end7:                                        ; preds = %loop.head5
  %18 = load i32, i32* %j, align 4
  %19 = icmp ne i32 %18, 55
  br i1 %19, label %then8, label %else9

then8:                                            ; preds = %loop.end7
  call void (i8*, ...) @_lfortran_printf(i8* getelementptr inbounds ([12 x i8], [12 x i8]* @2, i32 0, i32 0))
  call void @exit(i32 1)
  br label %ifcont10

else9:                                            ; preds = %loop.end7
  br label %ifcont10

ifcont10:                                         ; preds = %else9, %then8
  %iftmp11 = phi i32 [ 1, %then8 ], [ 2, %else9 ]
  %20 = load i32, i32* %i, align 4
  %21 = icmp ne i32 %20, 11
  br i1 %21, label %then12, label %else13

then12:                                           ; preds = %ifcont10
  call void (i8*, ...) @_lfortran_printf(i8* getelementptr inbounds ([12 x i8], [12 x i8]* @3, i32 0, i32 0))
  call void @exit(i32 1)
  br label %ifcont14

else13:                                           ; preds = %ifcont10
  br label %ifcont14

ifcont14:                                         ; preds = %else13, %then12
  %iftmp15 = phi i32 [ 1, %then12 ], [ 2, %else13 ]
  store i32 1, i32* %i, align 4
  store i32 0, i32* %j, align 4
  br label %loop.head16

loop.head16:                                      ; preds = %loop.body17, %ifcont14
  %22 = load i32, i32* %i, align 4
  %23 = icmp slt i32 %22, 1
  br i1 %23, label %loop.body17, label %loop.end18

loop.body17:                                      ; preds = %loop.head16
  %24 = load i32, i32* %j, align 4
  %25 = load i32, i32* %i, align 4
  %26 = add i32 %24, %25
  store i32 %26, i32* %j, align 4
  %27 = load i32, i32* %i, align 4
  %28 = add i32 %27, 1
  store i32 %28, i32* %i, align 4
  br label %loop.head16

loop.end18:                                       ; preds = %loop.head16
  %29 = load i32, i32* %j, align 4
  %30 = icmp ne i32 %29, 0
  br i1 %30, label %then19, label %else20

then19:                                           ; preds = %loop.end18
  call void (i8*, ...) @_lfortran_printf(i8* getelementptr inbounds ([12 x i8], [12 x i8]* @4, i32 0, i32 0))
  call void @exit(i32 1)
  br label %ifcont21

else20:                                           ; preds = %loop.end18
  br label %ifcont21

ifcont21:                                         ; preds = %else20, %then19
  %iftmp22 = phi i32 [ 1, %then19 ], [ 2, %else20 ]
  %31 = load i32, i32* %i, align 4
  %32 = icmp ne i32 %31, 1
  br i1 %32, label %then23, label %else24

then23:                                           ; preds = %ifcont21
  call void (i8*, ...) @_lfortran_printf(i8* getelementptr inbounds ([12 x i8], [12 x i8]* @5, i32 0, i32 0))
  call void @exit(i32 1)
  br label %ifcont25

else24:                                           ; preds = %ifcont21
  br label %ifcont25

ifcont25:                                         ; preds = %else24, %then23
  %iftmp26 = phi i32 [ 1, %then23 ], [ 2, %else24 ]
  ret i32 0
}

declare void @_lfortran_printf(i8*, ...)

declare void @exit(i32)

