{
    "basename": "llvm-intrinsics_05-d3cf5f5",
    "cmd": "lfortran --show-llvm {infile} -o {outfile}",
    "infile": "tests/../integration_tests/intrinsics_05.f90",
    "infile_hash": "735edff1f9942ce107c1b84f9ddcf00e648e553327f54dacf7b8238c",
    "outfile": null,
    "outfile_hash": null,
    "stdout": "llvm-intrinsics_05-d3cf5f5.stdout",
    "stdout_hash": "662a34aaf9fa47b91ea15a613203674c6df91c9be1bccf77a9b7845e",
    "stderr": null,
    "stderr_hash": null,
    "returncode": 0
}