; ModuleID = 'LFortran'
source_filename = "LFortran"

@0 = private unnamed_addr constant [12 x i8] c"ERROR STOP\0A\00", align 1
@1 = private unnamed_addr constant [12 x i8] c"ERROR STOP\0A\00", align 1
@2 = private unnamed_addr constant [12 x i8] c"ERROR STOP\0A\00", align 1
@3 = private unnamed_addr constant [12 x i8] c"ERROR STOP\0A\00", align 1
@4 = private unnamed_addr constant [12 x i8] c"ERROR STOP\0A\00", align 1
@5 = private unnamed_addr constant [12 x i8] c"ERROR STOP\0A\00", align 1
@6 = private unnamed_addr constant [12 x i8] c"ERROR STOP\0A\00", align 1
@7 = private unnamed_addr constant [12 x i8] c"ERROR STOP\0A\00", align 1
@8 = private unnamed_addr constant [12 x i8] c"ERROR STOP\0A\00", align 1
@9 = private unnamed_addr constant [12 x i8] c"ERROR STOP\0A\00", align 1
@10 = private unnamed_addr constant [12 x i8] c"ERROR STOP\0A\00", align 1
@11 = private unnamed_addr constant [12 x i8] c"ERROR STOP\0A\00", align 1
@12 = private unnamed_addr constant [12 x i8] c"ERROR STOP\0A\00", align 1
@13 = private unnamed_addr constant [12 x i8] c"ERROR STOP\0A\00", align 1
@14 = private unnamed_addr constant [12 x i8] c"ERROR STOP\0A\00", align 1
@15 = private unnamed_addr constant [12 x i8] c"ERROR STOP\0A\00", align 1
@16 = private unnamed_addr constant [12 x i8] c"ERROR STOP\0A\00", align 1
@17 = private unnamed_addr constant [12 x i8] c"ERROR STOP\0A\00", align 1
@18 = private unnamed_addr constant [12 x i8] c"ERROR STOP\0A\00", align 1
@19 = private unnamed_addr constant [12 x i8] c"ERROR STOP\0A\00", align 1
@20 = private unnamed_addr constant [12 x i8] c"ERROR STOP\0A\00", align 1
@21 = private unnamed_addr constant [12 x i8] c"ERROR STOP\0A\00", align 1
@22 = private unnamed_addr constant [12 x i8] c"ERROR STOP\0A\00", align 1
@23 = private unnamed_addr constant [12 x i8] c"ERROR STOP\0A\00", align 1

define i32 @main() {
.entry:
  %i = alloca i32, align 4
  %r = alloca float, align 4
  store float 2.000000e+00, float* %r, align 4
  store i32 2, i32* %i, align 4
  %0 = load i32, i32* %i, align 4
  %1 = load i32, i32* %i, align 4
  %2 = icmp slt i32 %0, %1
  br i1 %2, label %then, label %else

then:                                             ; preds = %.entry
  call void (i8*, ...) @_lfortran_printf(i8* getelementptr inbounds ([12 x i8], [12 x i8]* @0, i32 0, i32 0))
  call void @exit(i32 1)
  br label %ifcont

else:                                             ; preds = %.entry
  br label %ifcont

ifcont:                                           ; preds = %else, %then
  %iftmp = phi i32 [ 1, %then ], [ 2, %else ]
  %3 = load float, float* %r, align 4
  %4 = load float, float* %r, align 4
  %5 = fcmp ult float %3, %4
  br i1 %5, label %then1, label %else2

then1:                                            ; preds = %ifcont
  call void (i8*, ...) @_lfortran_printf(i8* getelementptr inbounds ([12 x i8], [12 x i8]* @1, i32 0, i32 0))
  call void @exit(i32 1)
  br label %ifcont3

else2:                                            ; preds = %ifcont
  br label %ifcont3

ifcont3:                                          ; preds = %else2, %then1
  %iftmp4 = phi i32 [ 1, %then1 ], [ 2, %else2 ]
  %6 = load float, float* %r, align 4
  %7 = load i32, i32* %i, align 4
  %8 = sitofp i32 %7 to float
  %9 = fcmp ult float %6, %8
  br i1 %9, label %then5, label %else6

then5:                                            ; preds = %ifcont3
  call void (i8*, ...) @_lfortran_printf(i8* getelementptr inbounds ([12 x i8], [12 x i8]* @2, i32 0, i32 0))
  call void @exit(i32 1)
  br label %ifcont7

else6:                                            ; preds = %ifcont3
  br label %ifcont7

ifcont7:                                          ; preds = %else6, %then5
  %iftmp8 = phi i32 [ 1, %then5 ], [ 2, %else6 ]
  %10 = load i32, i32* %i, align 4
  %11 = sitofp i32 %10 to float
  %12 = load float, float* %r, align 4
  %13 = fcmp ult float %11, %12
  br i1 %13, label %then9, label %else10

then9:                                            ; preds = %ifcont7
  call void (i8*, ...) @_lfortran_printf(i8* getelementptr inbounds ([12 x i8], [12 x i8]* @3, i32 0, i32 0))
  call void @exit(i32 1)
  br label %ifcont11

else10:                                           ; preds = %ifcont7
  br label %ifcont11

ifcont11:                                         ; preds = %else10, %then9
  %iftmp12 = phi i32 [ 1, %then9 ], [ 2, %else10 ]
  %14 = load i32, i32* %i, align 4
  %15 = load i32, i32* %i, align 4
  %16 = icmp sgt i32 %14, %15
  br i1 %16, label %then13, label %else14

then13:                                           ; preds = %ifcont11
  call void (i8*, ...) @_lfortran_printf(i8* getelementptr inbounds ([12 x i8], [12 x i8]* @4, i32 0, i32 0))
  call void @exit(i32 1)
  br label %ifcont15

else14:                                           ; preds = %ifcont11
  br label %ifcont15

ifcont15:                                         ; preds = %else14, %then13
  %iftmp16 = phi i32 [ 1, %then13 ], [ 2, %else14 ]
  %17 = load float, float* %r, align 4
  %18 = load float, float* %r, align 4
  %19 = fcmp ugt float %17, %18
  br i1 %19, label %then17, label %else18

then17:                                           ; preds = %ifcont15
  call void (i8*, ...) @_lfortran_printf(i8* getelementptr inbounds ([12 x i8], [12 x i8]* @5, i32 0, i32 0))
  call void @exit(i32 1)
  br label %ifcont19

else18:                                           ; preds = %ifcont15
  br label %ifcont19

ifcont19:                                         ; preds = %else18, %then17
  %iftmp20 = phi i32 [ 1, %then17 ], [ 2, %else18 ]
  %20 = load float, float* %r, align 4
  %21 = load i32, i32* %i, align 4
  %22 = sitofp i32 %21 to float
  %23 = fcmp ugt float %20, %22
  br i1 %23, label %then21, label %else22

then21:                                           ; preds = %ifcont19
  call void (i8*, ...) @_lfortran_printf(i8* getelementptr inbounds ([12 x i8], [12 x i8]* @6, i32 0, i32 0))
  call void @exit(i32 1)
  br label %ifcont23

else22:                                           ; preds = %ifcont19
  br label %ifcont23

ifcont23:                                         ; preds = %else22, %then21
  %iftmp24 = phi i32 [ 1, %then21 ], [ 2, %else22 ]
  %24 = load i32, i32* %i, align 4
  %25 = sitofp i32 %24 to float
  %26 = load float, float* %r, align 4
  %27 = fcmp ugt float %25, %26
  br i1 %27, label %then25, label %else26

then25:                                           ; preds = %ifcont23
  call void (i8*, ...) @_lfortran_printf(i8* getelementptr inbounds ([12 x i8], [12 x i8]* @7, i32 0, i32 0))
  call void @exit(i32 1)
  br label %ifcont27

else26:                                           ; preds = %ifcont23
  br label %ifcont27

ifcont27:                                         ; preds = %else26, %then25
  %iftmp28 = phi i32 [ 1, %then25 ], [ 2, %else26 ]
  %28 = load i32, i32* %i, align 4
  %29 = load i32, i32* %i, align 4
  %30 = icmp ne i32 %28, %29
  br i1 %30, label %then29, label %else30

then29:                                           ; preds = %ifcont27
  call void (i8*, ...) @_lfortran_printf(i8* getelementptr inbounds ([12 x i8], [12 x i8]* @8, i32 0, i32 0))
  call void @exit(i32 1)
  br label %ifcont31

else30:                                           ; preds = %ifcont27
  br label %ifcont31

ifcont31:                                         ; preds = %else30, %then29
  %iftmp32 = phi i32 [ 1, %then29 ], [ 2, %else30 ]
  %31 = load float, float* %r, align 4
  %32 = load float, float* %r, align 4
  %33 = fcmp une float %31, %32
  br i1 %33, label %then33, label %else34

then33:                                           ; preds = %ifcont31
  call void (i8*, ...) @_lfortran_printf(i8* getelementptr inbounds ([12 x i8], [12 x i8]* @9, i32 0, i32 0))
  call void @exit(i32 1)
  br label %ifcont35

else34:                                           ; preds = %ifcont31
  br label %ifcont35

ifcont35:                                         ; preds = %else34, %then33
  %iftmp36 = phi i32 [ 1, %then33 ], [ 2, %else34 ]
  %34 = load float, float* %r, align 4
  %35 = load i32, i32* %i, align 4
  %36 = sitofp i32 %35 to float
  %37 = fcmp une float %34, %36
  br i1 %37, label %then37, label %else38

then37:                                           ; preds = %ifcont35
  call void (i8*, ...) @_lfortran_printf(i8* getelementptr inbounds ([12 x i8], [12 x i8]* @10, i32 0, i32 0))
  call void @exit(i32 1)
  br label %ifcont39

else38:                                           ; preds = %ifcont35
  br label %ifcont39

ifcont39:                                         ; preds = %else38, %then37
  %iftmp40 = phi i32 [ 1, %then37 ], [ 2, %else38 ]
  %38 = load i32, i32* %i, align 4
  %39 = sitofp i32 %38 to float
  %40 = load float, float* %r, align 4
  %41 = fcmp une float %39, %40
  br i1 %41, label %then41, label %else42

then41:                                           ; preds = %ifcont39
  call void (i8*, ...) @_lfortran_printf(i8* getelementptr inbounds ([12 x i8], [12 x i8]* @11, i32 0, i32 0))
  call void @exit(i32 1)
  br label %ifcont43

else42:                                           ; preds = %ifcont39
  br label %ifcont43

ifcont43:                                         ; preds = %else42, %then41
  %iftmp44 = phi i32 [ 1, %then41 ], [ 2, %else42 ]
  %42 = load i32, i32* %i, align 4
  %43 = add i32 %42, 1
  %44 = load i32, i32* %i, align 4
  %45 = icmp sle i32 %43, %44
  br i1 %45, label %then45, label %else46

then45:                                           ; preds = %ifcont43
  call void (i8*, ...) @_lfortran_printf(i8* getelementptr inbounds ([12 x i8], [12 x i8]* @12, i32 0, i32 0))
  call void @exit(i32 1)
  br label %ifcont47

else46:                                           ; preds = %ifcont43
  br label %ifcont47

ifcont47:                                         ; preds = %else46, %then45
  %iftmp48 = phi i32 [ 1, %then45 ], [ 2, %else46 ]
  %46 = load float, float* %r, align 4
  %47 = fadd float %46, 1.000000e+00
  %48 = load float, float* %r, align 4
  %49 = fcmp ule float %47, %48
  br i1 %49, label %then49, label %else50

then49:                                           ; preds = %ifcont47
  call void (i8*, ...) @_lfortran_printf(i8* getelementptr inbounds ([12 x i8], [12 x i8]* @13, i32 0, i32 0))
  call void @exit(i32 1)
  br label %ifcont51

else50:                                           ; preds = %ifcont47
  br label %ifcont51

ifcont51:                                         ; preds = %else50, %then49
  %iftmp52 = phi i32 [ 1, %then49 ], [ 2, %else50 ]
  %50 = load float, float* %r, align 4
  %51 = fadd float %50, 1.000000e+00
  %52 = load i32, i32* %i, align 4
  %53 = sitofp i32 %52 to float
  %54 = fcmp ule float %51, %53
  br i1 %54, label %then53, label %else54

then53:                                           ; preds = %ifcont51
  call void (i8*, ...) @_lfortran_printf(i8* getelementptr inbounds ([12 x i8], [12 x i8]* @14, i32 0, i32 0))
  call void @exit(i32 1)
  br label %ifcont55

else54:                                           ; preds = %ifcont51
  br label %ifcont55

ifcont55:                                         ; preds = %else54, %then53
  %iftmp56 = phi i32 [ 1, %then53 ], [ 2, %else54 ]
  %55 = load i32, i32* %i, align 4
  %56 = add i32 %55, 1
  %57 = sitofp i32 %56 to float
  %58 = load float, float* %r, align 4
  %59 = fcmp ule float %57, %58
  br i1 %59, label %then57, label %else58

then57:                                           ; preds = %ifcont55
  call void (i8*, ...) @_lfortran_printf(i8* getelementptr inbounds ([12 x i8], [12 x i8]* @15, i32 0, i32 0))
  call void @exit(i32 1)
  br label %ifcont59

else58:                                           ; preds = %ifcont55
  br label %ifcont59

ifcont59:                                         ; preds = %else58, %then57
  %iftmp60 = phi i32 [ 1, %then57 ], [ 2, %else58 ]
  %60 = load i32, i32* %i, align 4
  %61 = load i32, i32* %i, align 4
  %62 = add i32 %61, 1
  %63 = icmp sge i32 %60, %62
  br i1 %63, label %then61, label %else62

then61:                                           ; preds = %ifcont59
  call void (i8*, ...) @_lfortran_printf(i8* getelementptr inbounds ([12 x i8], [12 x i8]* @16, i32 0, i32 0))
  call void @exit(i32 1)
  br label %ifcont63

else62:                                           ; preds = %ifcont59
  br label %ifcont63

ifcont63:                                         ; preds = %else62, %then61
  %iftmp64 = phi i32 [ 1, %then61 ], [ 2, %else62 ]
  %64 = load float, float* %r, align 4
  %65 = load float, float* %r, align 4
  %66 = fadd float %65, 1.000000e+00
  %67 = fcmp uge float %64, %66
  br i1 %67, label %then65, label %else66

then65:                                           ; preds = %ifcont63
  call void (i8*, ...) @_lfortran_printf(i8* getelementptr inbounds ([12 x i8], [12 x i8]* @17, i32 0, i32 0))
  call void @exit(i32 1)
  br label %ifcont67

else66:                                           ; preds = %ifcont63
  br label %ifcont67

ifcont67:                                         ; preds = %else66, %then65
  %iftmp68 = phi i32 [ 1, %then65 ], [ 2, %else66 ]
  %68 = load float, float* %r, align 4
  %69 = load i32, i32* %i, align 4
  %70 = add i32 %69, 1
  %71 = sitofp i32 %70 to float
  %72 = fcmp uge float %68, %71
  br i1 %72, label %then69, label %else70

then69:                                           ; preds = %ifcont67
  call void (i8*, ...) @_lfortran_printf(i8* getelementptr inbounds ([12 x i8], [12 x i8]* @18, i32 0, i32 0))
  call void @exit(i32 1)
  br label %ifcont71

else70:                                           ; preds = %ifcont67
  br label %ifcont71

ifcont71:                                         ; preds = %else70, %then69
  %iftmp72 = phi i32 [ 1, %then69 ], [ 2, %else70 ]
  %73 = load i32, i32* %i, align 4
  %74 = sitofp i32 %73 to float
  %75 = load float, float* %r, align 4
  %76 = fadd float %75, 1.000000e+00
  %77 = fcmp uge float %74, %76
  br i1 %77, label %then73, label %else74

then73:                                           ; preds = %ifcont71
  call void (i8*, ...) @_lfortran_printf(i8* getelementptr inbounds ([12 x i8], [12 x i8]* @19, i32 0, i32 0))
  call void @exit(i32 1)
  br label %ifcont75

else74:                                           ; preds = %ifcont71
  br label %ifcont75

ifcont75:                                         ; preds = %else74, %then73
  %iftmp76 = phi i32 [ 1, %then73 ], [ 2, %else74 ]
  %78 = load i32, i32* %i, align 4
  %79 = load i32, i32* %i, align 4
  %80 = add i32 %79, 1
  %81 = icmp eq i32 %78, %80
  br i1 %81, label %then77, label %else78

then77:                                           ; preds = %ifcont75
  call void (i8*, ...) @_lfortran_printf(i8* getelementptr inbounds ([12 x i8], [12 x i8]* @20, i32 0, i32 0))
  call void @exit(i32 1)
  br label %ifcont79

else78:                                           ; preds = %ifcont75
  br label %ifcont79

ifcont79:                                         ; preds = %else78, %then77
  %iftmp80 = phi i32 [ 1, %then77 ], [ 2, %else78 ]
  %82 = load float, float* %r, align 4
  %83 = load float, float* %r, align 4
  %84 = fadd float %83, 1.000000e+00
  %85 = fcmp ueq float %82, %84
  br i1 %85, label %then81, label %else82

then81:                                           ; preds = %ifcont79
  call void (i8*, ...) @_lfortran_printf(i8* getelementptr inbounds ([12 x i8], [12 x i8]* @21, i32 0, i32 0))
  call void @exit(i32 1)
  br label %ifcont83

else82:                                           ; preds = %ifcont79
  br label %ifcont83

ifcont83:                                         ; preds = %else82, %then81
  %iftmp84 = phi i32 [ 1, %then81 ], [ 2, %else82 ]
  %86 = load float, float* %r, align 4
  %87 = load i32, i32* %i, align 4
  %88 = add i32 %87, 1
  %89 = sitofp i32 %88 to float
  %90 = fcmp ueq float %86, %89
  br i1 %90, label %then85, label %else86

then85:                                           ; preds = %ifcont83
  call void (i8*, ...) @_lfortran_printf(i8* getelementptr inbounds ([12 x i8], [12 x i8]* @22, i32 0, i32 0))
  call void @exit(i32 1)
  br label %ifcont87

else86:                                           ; preds = %ifcont83
  br label %ifcont87

ifcont87:                                         ; preds = %else86, %then85
  %iftmp88 = phi i32 [ 1, %then85 ], [ 2, %else86 ]
  %91 = load i32, i32* %i, align 4
  %92 = sitofp i32 %91 to float
  %93 = load float, float* %r, align 4
  %94 = fadd float %93, 1.000000e+00
  %95 = fcmp ueq float %92, %94
  br i1 %95, label %then89, label %else90

then89:                                           ; preds = %ifcont87
  call void (i8*, ...) @_lfortran_printf(i8* getelementptr inbounds ([12 x i8], [12 x i8]* @23, i32 0, i32 0))
  call void @exit(i32 1)
  br label %ifcont91

else90:                                           ; preds = %ifcont87
  br label %ifcont91

ifcont91:                                         ; preds = %else90, %then89
  %iftmp92 = phi i32 [ 1, %then89 ], [ 2, %else90 ]
  ret i32 0
}

declare void @_lfortran_printf(i8*, ...)

declare void @exit(i32)

