{
    "basename": "llvm-arrays_op_2-070ac69",
    "cmd": "lfortran --show-llvm {infile} -o {outfile}",
    "infile": "tests/../integration_tests/arrays_op_2.f90",
    "infile_hash": "e9116415db10e04d12a361016bfaeb9bbff8ec31479b9fcbfd9700f7",
    "outfile": null,
    "outfile_hash": null,
    "stdout": "llvm-arrays_op_2-070ac69.stdout",
    "stdout_hash": "ee3c5ecd4ce68e03b5708d3716364595bb0178e3fbcba994795bc245",
    "stderr": null,
    "stderr_hash": null,
    "returncode": 0
}