; ModuleID = 'LFortran'
source_filename = "LFortran"

%b_nstd_types = type { i32*, float* }

@b_nstd_strct = global %b_nstd_types zeroinitializer
@0 = private unnamed_addr constant [4 x i8] c"%d\0A\00", align 1
@1 = private unnamed_addr constant [4 x i8] c"%f\0A\00", align 1
@2 = private unnamed_addr constant [4 x i8] c"%d\0A\00", align 1
@3 = private unnamed_addr constant [4 x i8] c"%f\0A\00", align 1
@4 = private unnamed_addr constant [4 x i8] c"%d\0A\00", align 1
@5 = private unnamed_addr constant [4 x i8] c"%f\0A\00", align 1

define void @__module_nested_05_a_b() {
.entry:
  %x = alloca i32, align 4
  store i32 6, i32* %x, align 4
  store i32* %x, i32** getelementptr inbounds (%b_nstd_types, %b_nstd_types* @b_nstd_strct, i32 0, i32 0), align 8
  %y = alloca float, align 4
  store float 5.500000e+00, float* %y, align 4
  store float* %y, float** getelementptr inbounds (%b_nstd_types, %b_nstd_types* @b_nstd_strct, i32 0, i32 1), align 8
  %0 = load i32, i32* %x, align 4
  call void (i8*, ...) @_lfortran_printf(i8* getelementptr inbounds ([4 x i8], [4 x i8]* @2, i32 0, i32 0), i32 %0)
  %1 = load float, float* %y, align 4
  %2 = fpext float %1 to double
  call void (i8*, ...) @_lfortran_printf(i8* getelementptr inbounds ([4 x i8], [4 x i8]* @3, i32 0, i32 0), double %2)
  call void @__module_nested_05_a_c()
  %3 = load i32, i32* %x, align 4
  call void (i8*, ...) @_lfortran_printf(i8* getelementptr inbounds ([4 x i8], [4 x i8]* @4, i32 0, i32 0), i32 %3)
  %4 = load float, float* %y, align 4
  %5 = fpext float %4 to double
  call void (i8*, ...) @_lfortran_printf(i8* getelementptr inbounds ([4 x i8], [4 x i8]* @5, i32 0, i32 0), double %5)
  ret void
}

define void @__module_nested_05_a_c() {
.entry:
  %0 = load i32*, i32** getelementptr inbounds (%b_nstd_types, %b_nstd_types* @b_nstd_strct, i32 0, i32 0), align 8
  %1 = load i32, i32* %0, align 4
  call void (i8*, ...) @_lfortran_printf(i8* getelementptr inbounds ([4 x i8], [4 x i8]* @0, i32 0, i32 0), i32 %1)
  %2 = load float*, float** getelementptr inbounds (%b_nstd_types, %b_nstd_types* @b_nstd_strct, i32 0, i32 1), align 8
  %3 = load float, float* %2, align 4
  %4 = fpext float %3 to double
  call void (i8*, ...) @_lfortran_printf(i8* getelementptr inbounds ([4 x i8], [4 x i8]* @1, i32 0, i32 0), double %4)
  %5 = load i32*, i32** getelementptr inbounds (%b_nstd_types, %b_nstd_types* @b_nstd_strct, i32 0, i32 0), align 8
  store i32 4, i32* %5, align 4
  store i32* %5, i32** getelementptr inbounds (%b_nstd_types, %b_nstd_types* @b_nstd_strct, i32 0, i32 0), align 8
  %6 = load float*, float** getelementptr inbounds (%b_nstd_types, %b_nstd_types* @b_nstd_strct, i32 0, i32 1), align 8
  store float 3.500000e+00, float* %6, align 4
  store float* %6, float** getelementptr inbounds (%b_nstd_types, %b_nstd_types* @b_nstd_strct, i32 0, i32 1), align 8
  ret void
}

declare void @_lfortran_printf(i8*, ...)

define i32 @main() {
.entry:
  call void @__module_nested_05_a_b()
  ret i32 0
}

