{
    "basename": "llvm-global_scope5-aff13a1",
    "cmd": "lfortran --show-llvm {infile} -o {outfile}",
    "infile": "tests/global_scope5.f90",
    "infile_hash": "63e512d3fe5d83aa6195002b9c31ddc77e1a93ac37df38989f782ed7",
    "outfile": null,
    "outfile_hash": null,
    "stdout": "llvm-global_scope5-aff13a1.stdout",
    "stdout_hash": "33d435dff512696e8343c8863b41b1a3cdd8e3eb6eaf6efe01baf6e8",
    "stderr": null,
    "stderr_hash": null,
    "returncode": 0
}