; ModuleID = 'LFortran'
source_filename = "LFortran"

@0 = private unnamed_addr constant [12 x i8] c"ERROR STOP\0A\00", align 1
@1 = private unnamed_addr constant [12 x i8] c"ERROR STOP\0A\00", align 1
@2 = private unnamed_addr constant [12 x i8] c"ERROR STOP\0A\00", align 1
@3 = private unnamed_addr constant [12 x i8] c"ERROR STOP\0A\00", align 1
@4 = private unnamed_addr constant [12 x i8] c"ERROR STOP\0A\00", align 1
@5 = private unnamed_addr constant [12 x i8] c"ERROR STOP\0A\00", align 1

define void @f(i32* %a, i32* %b) {
.entry:
  %0 = load i32, i32* %a, align 4
  %1 = add i32 %0, 1
  store i32 %1, i32* %b, align 4
  ret void
}

define void @g(i32* %a, i32* %b) {
.entry:
  %0 = load i32, i32* %a, align 4
  %1 = sub i32 %0, 1
  store i32 %1, i32* %b, align 4
  ret void
}

define void @h(i32* %a, i32* %b) {
.entry:
  call void @g(i32* %a, i32* %b)
  ret void
}

define i32 @main() {
.entry:
  %i = alloca i32, align 4
  %j = alloca i32, align 4
  store i32 1, i32* %i, align 4
  store i32 1, i32* %j, align 4
  call void @f(i32* %i, i32* %j)
  %0 = load i32, i32* %i, align 4
  %1 = icmp ne i32 %0, 1
  br i1 %1, label %then, label %else

then:                                             ; preds = %.entry
  call void (i8*, ...) @_lfortran_printf(i8* getelementptr inbounds ([12 x i8], [12 x i8]* @0, i32 0, i32 0))
  call void @exit(i32 1)
  br label %ifcont

else:                                             ; preds = %.entry
  br label %ifcont

ifcont:                                           ; preds = %else, %then
  %iftmp = phi i32 [ 1, %then ], [ 2, %else ]
  %2 = load i32, i32* %j, align 4
  %3 = icmp ne i32 %2, 2
  br i1 %3, label %then1, label %else2

then1:                                            ; preds = %ifcont
  call void (i8*, ...) @_lfortran_printf(i8* getelementptr inbounds ([12 x i8], [12 x i8]* @1, i32 0, i32 0))
  call void @exit(i32 1)
  br label %ifcont3

else2:                                            ; preds = %ifcont
  br label %ifcont3

ifcont3:                                          ; preds = %else2, %then1
  %iftmp4 = phi i32 [ 1, %then1 ], [ 2, %else2 ]
  call void @g(i32* %i, i32* %j)
  %4 = load i32, i32* %i, align 4
  %5 = icmp ne i32 %4, 1
  br i1 %5, label %then5, label %else6

then5:                                            ; preds = %ifcont3
  call void (i8*, ...) @_lfortran_printf(i8* getelementptr inbounds ([12 x i8], [12 x i8]* @2, i32 0, i32 0))
  call void @exit(i32 1)
  br label %ifcont7

else6:                                            ; preds = %ifcont3
  br label %ifcont7

ifcont7:                                          ; preds = %else6, %then5
  %iftmp8 = phi i32 [ 1, %then5 ], [ 2, %else6 ]
  %6 = load i32, i32* %j, align 4
  %7 = icmp ne i32 %6, 0
  br i1 %7, label %then9, label %else10

then9:                                            ; preds = %ifcont7
  call void (i8*, ...) @_lfortran_printf(i8* getelementptr inbounds ([12 x i8], [12 x i8]* @3, i32 0, i32 0))
  call void @exit(i32 1)
  br label %ifcont11

else10:                                           ; preds = %ifcont7
  br label %ifcont11

ifcont11:                                         ; preds = %else10, %then9
  %iftmp12 = phi i32 [ 1, %then9 ], [ 2, %else10 ]
  call void @h(i32* %i, i32* %j)
  %8 = load i32, i32* %i, align 4
  %9 = icmp ne i32 %8, 1
  br i1 %9, label %then13, label %else14

then13:                                           ; preds = %ifcont11
  call void (i8*, ...) @_lfortran_printf(i8* getelementptr inbounds ([12 x i8], [12 x i8]* @4, i32 0, i32 0))
  call void @exit(i32 1)
  br label %ifcont15

else14:                                           ; preds = %ifcont11
  br label %ifcont15

ifcont15:                                         ; preds = %else14, %then13
  %iftmp16 = phi i32 [ 1, %then13 ], [ 2, %else14 ]
  %10 = load i32, i32* %j, align 4
  %11 = icmp ne i32 %10, 0
  br i1 %11, label %then17, label %else18

then17:                                           ; preds = %ifcont15
  call void (i8*, ...) @_lfortran_printf(i8* getelementptr inbounds ([12 x i8], [12 x i8]* @5, i32 0, i32 0))
  call void @exit(i32 1)
  br label %ifcont19

else18:                                           ; preds = %ifcont15
  br label %ifcont19

ifcont19:                                         ; preds = %else18, %then17
  %iftmp20 = phi i32 [ 1, %then17 ], [ 2, %else18 ]
  ret i32 0
}

declare void @_lfortran_printf(i8*, ...)

declare void @exit(i32)

