{
    "basename": "llvm-doloop_01-6737d6e",
    "cmd": "lfortran --show-llvm {infile} -o {outfile}",
    "infile": "tests/../integration_tests/doloop_01.f90",
    "infile_hash": "b356557ebc4c64ea9eeb6d1ebeed5c35ab2e7ad5673bb7bfb09af88c",
    "outfile": null,
    "outfile_hash": null,
    "stdout": "llvm-doloop_01-6737d6e.stdout",
    "stdout_hash": "7e8f94a49fa6110708a5a54cad6354cc8e5b6ced4cefcc61bf54de8f",
    "stderr": null,
    "stderr_hash": null,
    "returncode": 0
}