{
    "basename": "pass_global_stmts-expr3-c9c0bd7",
    "cmd": "lfortran --pass=global_stmts --show-asr --no-color {infile} -o {outfile}",
    "infile": "tests/expr3.f90",
    "infile_hash": "a4aed9754913f48e6b1982a698f85476db8324f2d2efe0b1a2de88f5",
    "outfile": null,
    "outfile_hash": null,
    "stdout": "pass_global_stmts-expr3-c9c0bd7.stdout",
    "stdout_hash": "bdee0c5ec3b17006b9dc481bb3a7f2b282581a2f9ac2289cfe40af9f",
    "stderr": null,
    "stderr_hash": null,
    "returncode": 0
}