{
    "basename": "pass_global_stmts-global_scope2-64078e2",
    "cmd": "lfortran --pass=global_stmts --show-asr --no-color {infile} -o {outfile}",
    "infile": "tests/global_scope2.f90",
    "infile_hash": "e511f118b9a040b5e7a3ff2ad75cd7942dee08d3a21bd4ca5cd668b3",
    "outfile": null,
    "outfile_hash": null,
    "stdout": "pass_global_stmts-global_scope2-64078e2.stdout",
    "stdout_hash": "3ac190d1d43e82637e8cd2e5a9e06bb03f891c034d28c91595fa10f9",
    "stderr": null,
    "stderr_hash": null,
    "returncode": 0
}