{
    "basename": "pass_global_stmts-global_scope5-fb3716b",
    "cmd": "lfortran --pass=global_stmts --show-asr --no-color {infile} -o {outfile}",
    "infile": "tests/global_scope5.f90",
    "infile_hash": "63e512d3fe5d83aa6195002b9c31ddc77e1a93ac37df38989f782ed7",
    "outfile": null,
    "outfile_hash": null,
    "stdout": "pass_global_stmts-global_scope5-fb3716b.stdout",
    "stdout_hash": "c839953774c2a7f325d7e9eabe3924aaa9116ae1ad7f2d99b88534a9",
    "stderr": null,
    "stderr_hash": null,
    "returncode": 0
}