{
    "basename": "pass_global_stmts-global_scope8-95c3673",
    "cmd": "lfortran --pass=global_stmts --show-asr --no-color {infile} -o {outfile}",
    "infile": "tests/global_scope8.f90",
    "infile_hash": "899df30dee274279a699110fb9af2afad0b826c0abc886f9e2460627",
    "outfile": null,
    "outfile_hash": null,
    "stdout": "pass_global_stmts-global_scope8-95c3673.stdout",
    "stdout_hash": "605775288ce2b28f182a28262c3d6525800b1335ae32ed3239967015",
    "stderr": null,
    "stderr_hash": null,
    "returncode": 0
}